
{
    "page": 1,
    "total_results": 19759,
    "total_pages": 988,
    "results": [
                {
                "vote_count": 6603,
                "id": 198663,
                "video": false,
                "vote_average": 7,
                "title": "The Maze Runner",
                "popularity": 589.493473,
                "poster_path": "/coss7RgL0NH6g4fC2s5atvf3dFO.jpg",
                "original_language": "en",
                "original_title": "The Maze Runner",
                "genre_ids": [
                              28,
                              9648,
                              878,
                              53
                              ],
                "backdrop_path": "/lkOZcsXcOLZYeJ2YxJd3vSldvU4.jpg",
                "adult": false,
                "overview": "Set in a post-apocalyptic world, young Thomas is deposited in a community of boys after his memory is erased, soon learning they're all trapped in a maze that will require him to join forces with fellow “runners” for a shot at escape.",
                "release_date": "2014-09-10"
                },
                {
                "vote_count": 6673,
                "id": 245891,
                "video": false,
                "vote_average": 7,
                "title": "John Wick",
                "popularity": 427.103321,
                "poster_path": "/5vHssUeVe25bMrof1HyaPyWgaP.jpg",
                "original_language": "en",
                "original_title": "John Wick",
                "genre_ids": [
                              28,
                              53
                              ],
                "backdrop_path": "/umC04Cozevu8nn3JTDJ1pc7PVTn.jpg",
                "adult": false,
                "overview": "Ex-hitman John Wick comes out of retirement to track down the gangsters that took everything from him.",
                "release_date": "2014-10-22"
                },
                {
                "vote_count": 6266,
                "id": 346364,
                "video": false,
                "vote_average": 7.1,
                "title": "It",
                "popularity": 344.566227,
                "poster_path": "/9E2y5Q7WlCVNEhP5GiVTjhEhx1o.jpg",
                "original_language": "en",
                "original_title": "It",
                "genre_ids": [
                              18,
                              27,
                              53
                              ],
                "backdrop_path": "/tcheoA2nPATCm2vvXw2hVQoaEFD.jpg",
                "adult": false,
                "overview": "In a small town in Maine, seven children known as The Losers Club come face to face with life problems, bullies and a monster that takes the shape of a clown called Pennywise.",
                "release_date": "2017-09-05"
                },
                {
                "vote_count": 1799,
                "id": 354912,
                "video": false,
                "vote_average": 7.7,
                "title": "Coco",
                "popularity": 313.989036,
                "poster_path": "/eKi8dIrr8voobbaGzDpe8w0PVbC.jpg",
                "original_language": "en",
                "original_title": "Coco",
                "genre_ids": [
                              16,
                              12,
                              35
                              ],
                "backdrop_path": "/askg3SMvhqEl4OL52YuvdtY40Yb.jpg",
                "adult": false,
                "overview": "Despite his family’s baffling generations-old ban on music, Miguel dreams of becoming an accomplished musician like his idol, Ernesto de la Cruz. Desperate to prove his talent, Miguel finds himself in the stunning and colorful Land of the Dead following a mysterious chain of events. Along the way, he meets charming trickster Hector, and together, they set off on an extraordinary journey to unlock the real story behind Miguel's family history.",
                "release_date": "2017-10-27"
                },
                {
                "vote_count": 3454,
                "id": 8844,
                "video": false,
                "vote_average": 7,
                "title": "Jumanji",
                "popularity": 307.727636,
                "poster_path": "/8wBKXZNod4frLZjAKSDuAcQ2dEU.jpg",
                "original_language": "en",
                "original_title": "Jumanji",
                "genre_ids": [
                              12,
                              14,
                              10751
                              ],
                "backdrop_path": "/7k4zEgUZbzMHawDaMc9yIkmY1qR.jpg",
                "adult": false,
                "overview": "When siblings Judy and Peter discover an enchanted board game that opens the door to a magical world, they unwittingly invite Alan -- an adult who's been trapped inside the game for 26 years -- into their living room. Alan's only hope for freedom is to finish the game, which proves risky as all three find themselves running from giant rhinoceroses, evil monkeys and other terrifying creatures.",
                "release_date": "1995-12-15"
                },
                {
                "vote_count": 6996,
                "id": 321612,
                "video": false,
                "vote_average": 6.8,
                "title": "Beauty and the Beast",
                "popularity": 261.983874,
                "poster_path": "/tWqifoYuwLETmmasnGHO7xBjEtt.jpg",
                "original_language": "en",
                "original_title": "Beauty and the Beast",
                "genre_ids": [
                              10751,
                              14,
                              10749
                              ],
                "backdrop_path": "/6aUWe0GSl69wMTSWWexsorMIvwU.jpg",
                "adult": false,
                "overview": "A live-action adaptation of Disney's version of the classic tale of a cursed prince and a beautiful young woman who helps him break the spell.",
                "release_date": "2017-03-16"
                },
                {
                "vote_count": 2955,
                "id": 335984,
                "video": false,
                "vote_average": 7.4,
                "title": "Blade Runner 2049",
                "popularity": 257.934243,
                "poster_path": "/gajva2L0rPYkEWjzgFlBXCAVBE5.jpg",
                "original_language": "en",
                "original_title": "Blade Runner 2049",
                "genre_ids": [
                              9648,
                              878,
                              53
                              ],
                "backdrop_path": "/mVr0UiqyltcfqxbAUcLl9zWL8ah.jpg",
                "adult": false,
                "overview": "Thirty years after the events of the first film, a new blade runner, LAPD Officer K, unearths a long-buried secret that has the potential to plunge what's left of society into chaos. K's discovery leads him on a quest to find Rick Deckard, a former LAPD blade runner who has been missing for 30 years.",
                "release_date": "2017-10-04"
                },
                {
                "vote_count": 3592,
                "id": 284053,
                "video": false,
                "vote_average": 7.5,
                "title": "Thor: Ragnarok",
                "popularity": 247.525007,
                "poster_path": "/oSLd5GYGsiGgzDPKTwQh7wamO8t.jpg",
                "original_language": "en",
                "original_title": "Thor: Ragnarok",
                "genre_ids": [
                              878,
                              28,
                              12,
                              35
                              ],
                "backdrop_path": "/kaIfm5ryEOwYg8mLbq8HkPuM1Fo.jpg",
                "adult": false,
                "overview": "Thor is imprisoned on the other side of the universe and finds himself in a race against time to get back to Asgard to stop Ragnarok, the prophecy of destruction to his homeworld and the end of Asgardian civilization, at the hands of an all-powerful new threat, the ruthless Hela.",
                "release_date": "2017-10-25"
                },
                {
                "vote_count": 352,
                "id": 460793,
                "video": false,
                "vote_average": 5.9,
                "title": "Olaf's Frozen Adventure",
                "popularity": 214.166689,
                "poster_path": "/47pLZ1gr63WaciDfHCpmoiXJlVr.jpg",
                "original_language": "en",
                "original_title": "Olaf's Frozen Adventure",
                "genre_ids": [
                              12,
                              16,
                              35,
                              10751,
                              14,
                              10402
                              ],
                "backdrop_path": "/9K4QqQZg4TVXcxBGDiVY4Aey3Rn.jpg",
                "adult": false,
                "overview": "Olaf is on a mission to harness the best holiday traditions for Anna, Elsa, and Kristoff.",
                "release_date": "2017-10-27"
                },
                {
                "vote_count": 272,
                "id": 406563,
                "video": false,
                "vote_average": 6,
                "title": "Insidious: The Last Key",
                "popularity": 212.546548,
                "poster_path": "/nb9fc9INMg8kQ8L7sE7XTNsZnUX.jpg",
                "original_language": "en",
                "original_title": "Insidious: The Last Key",
                "genre_ids": [
                              9648,
                              27,
                              53
                              ],
                "backdrop_path": "/auSRjQyVLw212IjATAbO3KOyxZg.jpg",
                "adult": false,
                "overview": "Parapsychologist Elise Rainier and her team travel to Five Keys, N.M., to investigate a man's claim of a haunting. Terror soon strikes when Rainier realizes that the house he lives in was her family's old home.",
                "release_date": "2018-01-03"
                },
                {
                "vote_count": 301,
                "id": 399035,
                "video": false,
                "vote_average": 5.5,
                "title": "The Commuter",
                "popularity": 209.921482,
                "poster_path": "/rDeGK6FIUfVcXmuBdEORPAGPMNg.jpg",
                "original_language": "en",
                "original_title": "The Commuter",
                "genre_ids": [
                              28,
                              80,
                              18,
                              9648,
                              53
                              ],
                "backdrop_path": "/nlsNr1BEmRgRYYOO24NSHm6BXYb.jpg",
                "adult": false,
                "overview": "A businessman on his daily commute home gets unwittingly caught up in a criminal conspiracy that threatens not only his life but the lives of those around him.",
                "release_date": "2018-01-11"
                },
                {
                "vote_count": 226,
                "id": 347882,
                "video": false,
                "vote_average": 5.3,
                "title": "Sleight",
                "popularity": 209.898595,
                "poster_path": "/wridRvGxDqGldhzAIh3IcZhHT5F.jpg",
                "original_language": "en",
                "original_title": "Sleight",
                "genre_ids": [
                              18,
                              53,
                              28,
                              878
                              ],
                "backdrop_path": "/2SEgJ0mHJ7TSdVDbkGU061tR33K.jpg",
                "adult": false,
                "overview": "A young street magician is left to take care of his little sister after his mother's passing and turns to drug dealing in the Los Angeles party scene to keep a roof over their heads. When he gets into trouble with his supplier, his sister is kidnapped and he is forced to rely on both his sleight of hand and brilliant mind to save her.",
                "release_date": "2017-04-28"
                },
                {
                "vote_count": 5606,
                "id": 211672,
                "video": false,
                "vote_average": 6.4,
                "title": "Minions",
                "popularity": 207.08698,
                "poster_path": "/q0R4crx2SehcEEQEkYObktdeFy.jpg",
                "original_language": "en",
                "original_title": "Minions",
                "genre_ids": [
                              10751,
                              16,
                              12,
                              35
                              ],
                "backdrop_path": "/qLmdjn2fv0FV2Mh4NBzMArdA0Uu.jpg",
                "adult": false,
                "overview": "Minions Stuart, Kevin and Bob are recruited by Scarlet Overkill, a super-villain who, alongside her inventor husband Herb, hatches a plot to take over the world.",
                "release_date": "2015-06-17"
                },
                {
                "vote_count": 3748,
                "id": 339403,
                "video": false,
                "vote_average": 7.3,
                "title": "Baby Driver",
                "popularity": 200.293249,
                "poster_path": "/dN9LbVNNZFITwfaRjl4tmwGWkRg.jpg",
                "original_language": "en",
                "original_title": "Baby Driver",
                "genre_ids": [
                              28,
                              80
                              ],
                "backdrop_path": "/goCvLSUFz0p7k8R10Hv4CVh3EQv.jpg",
                "adult": false,
                "overview": "After being coerced into working for a crime boss, a young getaway driver finds himself taking part in a heist doomed to fail.",
                "release_date": "2017-06-28"
                },
                {
                "vote_count": 8422,
                "id": 209112,
                "video": false,
                "vote_average": 5.7,
                "title": "Batman v Superman: Dawn of Justice",
                "popularity": 197.186686,
                "poster_path": "/cGOPbv9wA5gEejkUN892JrveARt.jpg",
                "original_language": "en",
                "original_title": "Batman v Superman: Dawn of Justice",
                "genre_ids": [
                              28,
                              12,
                              14
                              ],
                "backdrop_path": "/vsjBeMPZtyB7yNsYY56XYxifaQZ.jpg",
                "adult": false,
                "overview": "Fearing the actions of a god-like Super Hero left unchecked, Gotham City’s own formidable, forceful vigilante takes on Metropolis’s most revered, modern-day savior, while the world wrestles with what sort of hero it really needs. And with Batman and Superman at war with one another, a new threat quickly arises, putting mankind in greater danger than it’s ever known before.",
                "release_date": "2016-03-23"
                },
                {
                "vote_count": 290,
                "id": 446354,
                "video": false,
                "vote_average": 6.8,
                "title": "The Post",
                "popularity": 187.203379,
                "poster_path": "/qyRwj5VvuTRdJ76o2grP93grNxt.jpg",
                "original_language": "en",
                "original_title": "The Post",
                "genre_ids": [
                              18,
                              36
                              ],
                "backdrop_path": "/2LR3XKthtguN7vOz99Q91IeEl1i.jpg",
                "adult": false,
                "overview": "A cover-up that spanned four U.S. Presidents pushed the country's first female newspaper publisher and a hard-driving editor to join an unprecedented battle between journalist and government. Inspired by true events.",
                "release_date": "2017-12-22"
                },
                {
                "vote_count": 2424,
                "id": 343668,
                "video": false,
                "vote_average": 7,
                "title": "Kingsman: The Golden Circle",
                "popularity": 177.259469,
                "poster_path": "/34xBL6BXNYFqtHO9zhcgoakS4aP.jpg",
                "original_language": "en",
                "original_title": "Kingsman: The Golden Circle",
                "genre_ids": [
                              28,
                              12,
                              35
                              ],
                "backdrop_path": "/uExPmkOHJySrbJyJDJylHDqaT58.jpg",
                "adult": false,
                "overview": "When an attack on the Kingsman headquarters takes place and a new villain rises, Eggsy and Merlin are forced to work together with the American agency known as the Statesman to save the world.",
                "release_date": "2017-09-20"
                },
                {
                "vote_count": 3550,
                "id": 181808,
                "video": false,
                "vote_average": 7.2,
                "title": "Star Wars: The Last Jedi",
                "popularity": 158.719166,
                "poster_path": "/kOVEVeg59E0wsnXmF9nrh6OmWII.jpg",
                "original_language": "en",
                "original_title": "Star Wars: The Last Jedi",
                "genre_ids": [
                              28,
                              12,
                              14,
                              878
                              ],
                "backdrop_path": "/5Iw7zQTHVRBOYpA0V6z0yypOPZh.jpg",
                "adult": false,
                "overview": "Rey develops her newly discovered abilities with the guidance of Luke Skywalker, who is unsettled by the strength of her powers. Meanwhile, the Resistance prepares to do battle with the First Order.",
                "release_date": "2017-12-13"
                },
                {
                "vote_count": 147,
                "id": 336843,
                "video": false,
                "vote_average": 7.4,
                "title": "Maze Runner: The Death Cure",
                "popularity": 157.243188,
                "poster_path": "/7GgZ6DGezkh3szFdvskH5XD4V0t.jpg",
                "original_language": "en",
                "original_title": "Maze Runner: The Death Cure",
                "genre_ids": [
                              28,
                              9648,
                              878,
                              53
                              ],
                "backdrop_path": "/bvbyidkMaBls1LTaIWYY6UmYTaL.jpg",
                "adult": false,
                "overview": "Thomas leads his group of escaped Gladers on their final and most dangerous mission yet. To save their friends, they must break into the legendary Last City, a WCKD-controlled labyrinth that may turn out to be the deadliest maze of all. Anyone who makes it out alive will get answers to the questions the Gladers have been asking since they first arrived in the maze.",
                "release_date": "2018-01-17"
                },
                {
                "vote_count": 1997,
                "id": 353486,
                "video": false,
                "vote_average": 6.4,
                "title": "Jumanji: Welcome to the Jungle",
                "popularity": 156.292383,
                "poster_path": "/bXrZ5iHBEjH7WMidbUDQ0U2xbmr.jpg",
                "original_language": "en",
                "original_title": "Jumanji: Welcome to the Jungle",
                "genre_ids": [
                              28,
                              12,
                              35,
                              10751
                              ],
                "backdrop_path": "/cpz070zEKbPGXzCWuQsNt42PqXY.jpg",
                "adult": false,
                "overview": "The tables are turned as four teenagers are sucked into Jumanji's world - pitted against rhinos, black mambas and an endless variety of jungle traps and puzzles. To survive, they'll play as characters from the game.",
                "release_date": "2017-12-08"
                }
                ]
}
